\relax 
\citation{Wambacq1998}
\citation{Wambacq1998,Hernes2005,Cannizzaro2006}
\citation{Wambacq1998b}
\citation{Schoukens2001,Pintelon2012chapter3}
\citation{Pintelon2012chapter3}
\@writefile{toc}{\contentsline {section}{\numberline {1}Introduction}{1}}
\newlabel{sec:Intro}{{1}{1}}
\citation{Gray2001}
\citation{Wong2012}
\@writefile{lof}{\contentsline {figure}{\numberline {1}{\ignorespaces The Miller op-amp that will be used as a test case throughout the paper. Stage 1 and 2 are shown in red and blue respectively}}{2}}
\newlabel{fig:MillerOpamp}{{1}{2}}
\@writefile{lof}{\contentsline {figure}{\numberline {2}{\ignorespaces The Miller op-amp in its feedback configuration as an inverting amplifier. The in- and output signals of the stages are shown in red.}}{2}}
\newlabel{fig:transientsim}{{2}{2}}
\@writefile{toc}{\contentsline {section}{\numberline {2}Test-case: Miller op-amp}{2}}
\newlabel{sec:Miller}{{2}{2}}
\citation{Schetsen1980}
\citation{Pintelon2012chapter3}
\citation{schoukens2006}
\citation{Pintelon2004a}
\citation{Schoukens1991,Sanchez2012}
\citation{Schoukens1998b}
\@writefile{toc}{\contentsline {section}{\numberline {3}Multisine excitation}{3}}
\newlabel{sec:multisine}{{3}{3}}
\newlabel{eq:multisine}{{1}{3}}
\@writefile{lof}{\contentsline {figure}{\numberline {3}{\ignorespaces Different Gaussian-distributed excitation signals. The random Gaussian noise (filtered white noise on top) suffers from leakage and doesn't allow to separate distortion from noise. The random-phase multisine (bottom) allows full control over the PSD, while maintaining noise-like properties in the time-domain.}}{3}}
\newlabel{fig:MultisinesVSGaussian}{{3}{3}}
\@writefile{lof}{\contentsline {figure}{\numberline {4}{\ignorespaces Response of a non-linear system to an random-odd random-phase multisine. The odd and even non-linear contributions can easily be separated by looking at the odd and even frequency lines respectively}}{3}}
\newlabel{fig:NLresponse}{{4}{3}}
\citation{Kundert1995}
\citation{Kundert1995}
\@writefile{toc}{\contentsline {subsection}{\numberline {3.1}Applying the multisine to the Miller op-amp}{4}}
\@writefile{lof}{\contentsline {figure}{\numberline {5}{\ignorespaces Spectra obtained during the transient simulations with a multisine excitation. The even frequency lines, which represent the even-order distortion in the circuit, are shown with \includegraphics [keepaspectratio=true,height=1.3ex]{6.pdf}, the excited odd frequency lines are shown in black and the unexcited odd frequency lines, which represent the amount of odd-order distortion, with \includegraphics [keepaspectratio=true,height=1.3ex]{7.pdf}.}}{4}}
\newlabel{fig:MillerSpectra}{{5}{4}}
\@writefile{toc}{\contentsline {section}{\numberline {4}Best Linear Approximation}{4}}
\newlabel{sec:BLA}{{4}{4}}
\citation{Pintelon2012b}
\@writefile{lof}{\contentsline {figure}{\numberline {6}{\ignorespaces The BLA models the behaviour of a non-linear system as a linear system $G_{BLA}(\omega )$ where the distortion is modelled as a noise source $Y_S$.}}{5}}
\newlabel{fig:BLA}{{6}{5}}
\newlabel{eq:spectralcorrection}{{3}{5}}
\@writefile{toc}{\contentsline {subsection}{\numberline {4.1}BLA of the Miller op-amp}{5}}
\citation{Wambacq1998}
\citation{Dobrowiecki2007}
\@writefile{lof}{\contentsline {figure}{\numberline {7}{\ignorespaces The BLA ($\bullet $) of stage 1 (left) and stage 2 (right) in the Miller op-amp. The standard deviation on the BLA is shown with the black line.}}{6}}
\newlabel{fig:MillerBLAvsAC}{{7}{6}}
\@writefile{lof}{\contentsline {figure}{\numberline {8}{\ignorespaces $Y_S$ of stage 1 (left) and stage 2 (right) in the Miller op-amp obtained by correcting the output. \includegraphics [keepaspectratio=true,height=1.3ex]{6.pdf} represent even frequency lines, \includegraphics [keepaspectratio=true,height=1.3ex]{7.pdf} represent the odd frequency lines}}{6}}
\newlabel{fig:CorrectedOutputSpectra}{{8}{6}}
\@writefile{toc}{\contentsline {section}{\numberline {5}Finding the dominant source of non-linear distortion using the BLA}{6}}
\newlabel{sec:noiseanalysis}{{5}{6}}
\@writefile{toc}{\contentsline {subsection}{\numberline {5.1}Determine the PSD of the noise source}{6}}
\newlabel{subsec:PSDnoise}{{5.1}{6}}
\@writefile{lof}{\contentsline {figure}{\numberline {9}{\ignorespaces AC simulation set-up to determine the FRF of each stage.}}{6}}
\newlabel{fig:ACtransferfunctions}{{9}{6}}
\@writefile{lof}{\contentsline {figure}{\numberline {10}{\ignorespaces AC simulation set-up to obtain the necessary FRFs to determine the amount of distortion in the current source and to refer the distortion to the output. (a) Stage 1 (b) Stage 2}}{7}}
\newlabel{fig:ACoutputrefer}{{10}{7}}
\@writefile{toc}{\contentsline {subsection}{\numberline {5.2}Determine the FRF between the noise source and the op-amp output}{7}}
\newlabel{subsec:FRFnoisetoout}{{5.2}{7}}
\@writefile{toc}{\contentsline {subsection}{\numberline {5.3}Summary}{7}}
\newlabel{sec:Summary}{{5.3}{7}}
\@writefile{toc}{\contentsline {subsection}{\numberline {5.4}Finding the dominant source of non-linear distortion in the Miller op-amp}{7}}
\@writefile{toc}{\contentsline {subsection}{\numberline {5.5}Speeding up the analysis}{7}}
\newlabel{subsec:SpeedingUp}{{5.5}{7}}
\@writefile{lof}{\contentsline {figure}{\numberline {11}{\ignorespaces Output referred non-linear distortion of each stage in the op-amp. \includegraphics [keepaspectratio=true,height=1.3ex]{6.pdf} represent even frequency lines, \includegraphics [keepaspectratio=true,height=1.3ex]{7.pdf} represent the odd frequency lines}}{8}}
\newlabel{fig:MillerOutputReferred}{{11}{8}}
\@writefile{lof}{\contentsline {figure}{\numberline {12}{\ignorespaces Schematic of the folded-cascode op-amp. The second stage consists of a level-shifter and a common-source amplifier.}}{8}}
\newlabel{fig:FoldedCasc}{{12}{8}}
\@writefile{toc}{\contentsline {section}{\numberline {6}Example 2: Folded-Cascode op-amp}{8}}
\newlabel{sec:FoldedCasc}{{6}{8}}
\@writefile{lof}{\contentsline {figure}{\numberline {13}{\ignorespaces Output referred non-linear contributions of the first and second stage of the Folded-cascode op-amp. \includegraphics [keepaspectratio=true,height=1.3ex]{6.pdf} represent even frequency lines, \includegraphics [keepaspectratio=true,height=1.3ex]{7.pdf} represent the odd frequency lines}}{8}}
\newlabel{fig:FoldedCascOutputReferred}{{13}{8}}
\@writefile{toc}{\contentsline {section}{\numberline {7}Conclusion}{8}}
\newlabel{sec:conclusion}{{7}{8}}
\bibcite{Cannizzaro2006}{1}
\bibcite{Dobrowiecki2007}{2}
\bibcite{Gray2001}{3}
\bibcite{Hernes2005}{4}
\bibcite{Kundert1995}{5}
\bibcite{Pintelon2012b}{6}
\bibcite{Pintelon2012chapter3}{7}
\bibcite{Pintelon2004a}{8}
\bibcite{Sanchez2012}{9}
\bibcite{Schetsen1980}{10}
\bibcite{Schoukens1998b}{11}
\bibcite{Schoukens1991}{12}
\bibcite{Schoukens2001}{13}
\bibcite{schoukens2006}{14}
\bibcite{Wambacq1998b}{15}
\bibcite{Wambacq1998}{16}
\bibcite{Wong2012}{17}
\@writefile{toc}{\contentsline {subsection}{\numberline {7.1}APPENDIX\nobreakspace  {}I: Theory behind the BLA}{9}}
\newlabel{eq:FullResponse}{{4}{9}}
\citation{Pintelon2012chapter3}
\newlabel{eq:BLA}{{5}{10}}
